<?xml version="1.0" encoding="utf-8"?>
<!-- =================================================================================== -->
<!-- |    This document was autogenerated by xacro from crazyflie.urdf.xacro           | -->
<!-- |    EDITING THIS FILE BY HAND IS NOT RECOMMENDED                                 | -->
<!-- =================================================================================== -->
<robot name="crazyflie">
  <link name="base_link">
    <inertial>
      <mass value="0.019"/>
      <origin xyz="0 0 0"/>
      <!-- ToDo: This is not correct! -->
      <inertia ixx="0.01152" ixy="0.0" ixz="0.0" iyy="0.01152" iyz="0.0" izz="0.0218"/>
    </inertial>
    <visual>
      <origin rpy="0 0 0" xyz="0 0 0"/>
      <geometry>
        <mesh filename="meshes/crazyflie.dae"/>
      </geometry>
    </visual>
    <!-- ToDo: insert collision model -->
  </link>
</robot>

