####
#
# OBJ File Generated by Meshlab
#
####
# Object glass.obj
#
# Vertices: 152
# Faces: 300
#
####
v 0.673509 -0.069862 0.655940
v 0.794871 -0.071047 0.448279
v 0.793261 -0.027279 0.445714
v 0.553816 -0.073133 0.082456
v 0.489296 -0.073217 0.067803
v 0.501506 -0.029430 0.068557
v 0.423158 -0.073227 0.066018
v 0.299678 -0.073065 0.094455
v 0.331860 -0.029349 0.082757
v 0.185090 -0.028777 0.183181
v 0.172868 -0.072443 0.203406
v 0.108321 -0.071549 0.360154
v 0.107623 -0.027767 0.360165
v 0.365449 -0.025645 0.732259
v 0.330061 -0.069477 0.723472
v 0.504752 -0.025620 0.736589
v 0.584446 -0.026188 0.637054
v 0.636529 -0.025911 0.685697
v 0.563144 -0.069897 0.649915
v 0.498438 -0.069396 0.737724
v 0.721427 -0.027094 0.478143
v 0.666891 -0.070402 0.561290
v 0.730030 -0.071404 0.385620
v 0.788997 -0.027663 0.378496
v 0.764000 -0.071996 0.281792
v 0.783818 -0.071444 0.378654
v 0.650521 -0.028555 0.221999
v 0.718584 -0.028673 0.201284
v 0.645614 -0.072359 0.218112
v 0.677274 -0.072747 0.150191
v 0.668238 -0.028981 0.147392
v 0.580700 -0.028863 0.168032
v 0.614237 -0.029199 0.109165
v 0.580700 -0.072644 0.168281
v 0.504732 -0.029037 0.137601
v 0.509637 -0.072811 0.138965
v 0.371436 -0.029023 0.140004
v 0.378502 -0.072814 0.138317
v 0.219704 -0.028412 0.247154
v 0.224067 -0.072247 0.237787
v 0.175772 -0.027237 0.453118
v 0.174345 -0.071065 0.445026
v 0.106281 -0.027387 0.426930
v 0.107336 -0.071170 0.426683
v 0.182650 -0.026294 0.618567
v 0.176839 -0.070114 0.611774
v 0.268876 -0.026346 0.609362
v 0.323050 -0.069879 0.653114
v 0.420604 -0.025979 0.673657
v 0.934052 -0.027640 0.382457
v 0.999653 -0.019872 0.385869
v 0.998555 -0.071179 0.425151
v 0.997868 -0.027253 0.450365
v 0.932267 -0.027263 0.448595
v 0.932267 1.007529 0.667585
v 0.997868 1.007540 0.669355
v -0.765075 -0.028202 0.283897
v -0.695520 -0.028845 0.171263
v -0.722350 -0.072479 0.197161
v -0.512501 -0.029462 0.062945
v -0.532474 -0.073212 0.068598
v -0.296154 -0.029248 0.100584
v -0.240170 -0.029047 0.135844
v -0.240170 -0.072827 0.136094
v -0.192141 -0.028787 0.181349
v -0.192141 -0.072568 0.181599
v -0.091740 -0.027771 0.359590
v -0.153913 -0.072260 0.235599
v -0.108002 -0.071549 0.360248
v -0.563220 -0.069898 0.649799
v -0.575367 -0.026152 0.643473
v -0.444611 -0.025981 0.673321
v -0.435112 -0.069763 0.673314
v -0.711046 -0.026282 0.620541
v -0.568840 -0.025721 0.718936
v -0.687687 -0.026790 0.531625
v -0.622897 -0.069612 0.699921
v -0.680964 -0.070503 0.543676
v -0.787299 -0.071061 0.445744
v -0.715920 -0.027291 0.443618
v -0.720840 -0.071524 0.364644
v -0.701674 -0.028068 0.307412
v -0.783818 -0.027663 0.378406
v -0.786947 -0.071445 0.378477
v -0.640537 -0.028609 0.212665
v -0.647072 -0.072350 0.219812
v -0.500686 -0.029071 0.131659
v -0.515852 -0.072832 0.135353
v -0.375852 -0.029010 0.142263
v -0.357941 -0.029383 0.076923
v -0.375852 -0.072791 0.142512
v -0.326468 -0.028902 0.161174
v -0.296154 -0.073028 0.100834
v -0.326468 -0.072683 0.161424
v -0.281723 -0.028741 0.189356
v -0.281723 -0.072522 0.189606
v -0.243335 -0.028534 0.225726
v -0.243335 -0.072315 0.225976
v -0.176406 -0.027832 0.348897
v -0.212781 -0.072068 0.269136
v -0.171587 -0.071394 0.387451
v -0.110516 -0.027389 0.426425
v -0.099608 -0.071169 0.426862
v -0.195901 -0.026949 0.503724
v -0.130641 -0.026832 0.524087
v -0.215429 -0.070507 0.543006
v -0.294106 -0.026217 0.632081
v -0.222845 -0.026050 0.661319
v -0.211435 -0.069924 0.645120
v -0.306155 -0.069974 0.636459
v -0.361232 -0.069400 0.737115
v -0.372482 -0.025640 0.733190
v -0.471177 -0.025606 0.739061
v -0.932266 -0.027263 0.448597
v -0.997868 -0.027253 0.450367
v -0.997868 -0.071034 0.450617
v -0.997868 1.007539 0.669357
v -0.999652 1.007162 0.603220
v -0.999652 -0.027630 0.384229
v -0.999652 -0.071411 0.384479
v -0.934051 1.007152 0.601450
v -0.932266 1.007529 0.667587
v -0.934051 -0.027640 0.382459
v 0.999652 1.007162 0.603218
v 0.197353 -0.058738 0.555410
v 0.162465 -0.060001 0.334010
v 0.733109 -0.060032 0.328617
v 0.288437 -0.061014 0.156441
v 0.544894 -0.061209 0.122273
v 0.385528 -0.057972 0.689832
v 0.640459 -0.058340 0.625206
v 0.535560 -0.040797 0.126600
v 0.729174 -0.039864 0.290098
v 0.518145 -0.037620 0.683584
v 0.690502 -0.038299 0.564519
v 0.189585 -0.038467 0.535056
v 0.327708 -0.037702 0.669236
v 0.327556 -0.040757 0.133585
v 0.160768 -0.039572 0.341365
v -0.593442 -0.061036 0.152542
v -0.679090 -0.040281 0.217156
v -0.416819 -0.040908 0.107208
v -0.145680 -0.059681 0.390105
v -0.352488 -0.058049 0.676383
v -0.613635 -0.058142 0.660082
v -0.734697 -0.060033 0.328358
v -0.362848 -0.061264 0.112591
v -0.733025 -0.038880 0.462801
v -0.306652 -0.037779 0.655816
v -0.172454 -0.039956 0.274066
v -0.558327 -0.037642 0.679744
v -0.200560 -0.042454 0.557318
# 152 vertices, 0 vertices normals

f 1 2 3
f 4 5 6
f 6 5 7
f 7 8 9
f 9 8 10
f 10 8 11
f 10 11 12
f 10 12 13
f 14 15 16
f 17 16 18
f 19 1 20
f 21 17 18
f 19 22 1
f 21 18 3
f 22 2 1
f 22 23 2
f 21 3 24
f 23 25 26
f 27 21 24
f 27 24 28
f 23 29 30
f 23 30 25
f 27 28 31
f 32 27 31
f 32 31 33
f 29 34 30
f 35 32 33
f 35 33 6
f 34 36 4
f 34 4 30
f 36 5 4
f 37 35 6
f 37 6 9
f 36 38 7
f 36 7 5
f 38 8 7
f 39 37 9
f 39 9 10
f 38 40 8
f 40 11 8
f 39 10 13
f 40 12 11
f 41 39 13
f 40 42 12
f 41 13 43
f 42 44 12
f 41 43 45
f 42 46 44
f 47 41 45
f 42 48 46
f 47 45 14
f 48 15 46
f 49 47 14
f 49 14 16
f 48 20 15
f 17 49 16
f 48 19 20
f 48 47 49
f 47 42 41
f 42 40 39
f 42 39 41
f 40 38 37
f 40 37 39
f 38 36 35
f 38 35 37
f 36 34 32
f 36 32 35
f 34 29 27
f 34 27 32
f 29 23 27
f 23 22 21
f 22 19 17
f 22 17 21
f 26 50 51
f 26 51 52
f 53 52 51
f 2 26 52
f 3 2 54
f 54 2 52
f 54 52 53
f 50 3 54
f 55 53 56
f 57 58 59
f 58 60 61
f 58 61 59
f 62 63 64
f 63 65 66
f 63 66 64
f 65 67 68
f 65 68 66
f 67 69 68
f 70 71 72
f 70 72 73
f 71 74 75
f 76 74 71
f 70 77 78
f 78 77 79
f 80 74 76
f 78 79 81
f 82 57 83
f 81 84 59
f 85 58 57
f 85 57 82
f 81 59 86
f 87 60 58
f 87 58 85
f 86 59 61
f 86 61 88
f 89 90 60
f 89 60 87
f 88 61 91
f 92 62 90
f 92 90 89
f 91 61 93
f 91 93 94
f 95 63 62
f 95 62 92
f 94 93 64
f 94 64 96
f 97 65 63
f 97 63 95
f 96 64 66
f 96 66 98
f 99 67 65
f 99 65 97
f 98 66 68
f 98 68 100
f 100 68 69
f 100 69 101
f 99 102 67
f 101 69 103
f 104 105 102
f 104 102 99
f 101 103 106
f 107 108 105
f 107 105 104
f 106 103 109
f 106 109 110
f 110 109 111
f 107 112 108
f 72 112 107
f 110 111 73
f 72 113 112
f 71 75 113
f 71 113 72
f 73 111 77
f 73 77 70
f 73 72 107
f 73 107 110
f 110 107 106
f 106 107 104
f 106 104 101
f 101 104 99
f 101 99 100
f 100 99 97
f 100 97 98
f 98 97 95
f 98 95 96
f 96 95 92
f 96 92 94
f 94 92 89
f 94 89 91
f 91 89 87
f 91 87 88
f 88 87 85
f 88 85 86
f 86 85 82
f 86 82 81
f 81 80 76
f 81 76 78
f 78 76 71
f 78 71 70
f 114 115 116
f 67 102 43
f 67 43 13
f 48 42 47
f 19 48 49
f 19 49 17
f 103 69 44
f 117 118 119
f 115 119 116
f 113 75 77
f 113 77 111
f 112 113 111
f 108 112 111
f 109 108 111
f 105 108 109
f 105 109 103
f 102 105 103
f 62 64 93
f 90 62 93
f 90 93 61
f 60 90 61
f 57 59 84
f 83 57 84
f 74 80 79
f 74 79 77
f 75 74 77
f 16 20 1
f 16 1 18
f 15 20 16
f 45 46 15
f 45 15 14
f 43 46 45
f 43 44 46
f 6 7 9
f 33 4 6
f 33 30 4
f 31 30 33
f 28 30 31
f 24 25 28
f 25 30 28
f 24 26 25
f 18 1 3
f 102 44 43
f 23 21 27
f 116 119 120
f 121 118 117
f 121 117 122
f 120 119 123
f 119 118 121
f 115 122 117
f 119 121 123
f 114 122 115
f 51 50 124
f 54 53 55
f 24 3 50
f 24 50 26
f 53 51 124
f 53 124 56
f 50 55 124
f 124 55 56
f 23 26 2
f 115 117 119
f 82 83 80
f 81 82 80
f 121 122 114
f 50 54 55
f 80 114 116
f 80 116 79
f 84 120 123
f 84 123 83
f 83 123 114
f 83 114 80
f 79 116 120
f 79 120 84
f 123 121 114
f 79 84 81
f 102 103 44
f 44 69 12
f 69 67 13
f 69 13 12
f 125 126 127
f 127 128 129
f 130 125 127
f 131 130 127
f 129 132 133
f 129 133 127
f 134 135 133
f 136 137 134
f 138 139 136
f 138 136 134
f 134 133 132
f 134 132 138
f 127 133 135
f 131 135 134
f 130 137 125
f 125 137 136
f 125 136 139
f 125 139 126
f 126 139 128
f 128 138 129
f 127 126 128
f 139 138 128
f 130 134 137
f 131 134 130
f 127 135 131
f 129 138 132
f 140 141 142
f 143 144 145
f 145 146 140
f 143 145 140
f 143 140 147
f 147 140 142
f 140 146 141
f 146 148 141
f 149 150 142
f 141 148 151
f 149 142 141
f 149 141 151
f 145 151 148
f 145 144 151
f 144 149 151
f 144 152 149
f 143 150 152
f 149 152 150
f 144 143 152
f 147 142 150
f 143 147 150
f 146 145 148
# 300 faces, 0 coords texture

# End of File
