<?xml version="1.0"?>
<!--
/****************************************************************************
 *   Copyright (c) 2017 Michael Shomin. All rights reserved.
 *
 * Redistribution and use in source and binary forms, with or without
 * modification, are permitted provided that the following conditions
 * are met:
 *
 * 1. Redistributions of source code must retain the above copyright
 *    notice, this list of conditions and the following disclaimer.
 * 2. Redistributions in binary form must reproduce the above copyright
 *    notice, this list of conditions and the following disclaimer in
 *    the documentation and/or other materials provided with the
 *    distribution.
 * 3. Neither the name ATLFlight nor the names of its contributors may be
 *    used to endorse or promote products derived from this software
 *    without specific prior written permission.
 *
 * NO EXPRESS OR IMPLIED LICENSES TO ANY PARTY'S PATENT RIGHTS ARE GRANTED BY THIS LICENSE.
 * THIS SOFTWARE IS PROVIDED BY THE COPYRIGHT HOLDERS AND CONTRIBUTORS
 * "AS IS" AND ANY EXPRESS OR IMPLIED WARRANTIES, INCLUDING, BUT NOT
 * LIMITED TO, THE IMPLIED WARRANTIES OF MERCHANTABILITY AND FITNESS
 * FOR A PARTICULAR PURPOSE ARE DISCLAIMED. IN NO EVENT SHALL THE
 * COPYRIGHT OWNER OR CONTRIBUTORS BE LIABLE FOR ANY DIRECT, INDIRECT,
 * INCIDENTAL, SPECIAL, EXEMPLARY, OR CONSEQUENTIAL DAMAGES (INCLUDING,
 * BUT NOT LIMITED TO, PROCUREMENT OF SUBSTITUTE GOODS OR SERVICES; LOSS
 * OF USE, DATA, OR PROFITS; OR BUSINESS INTERRUPTION) HOWEVER CAUSED
 * AND ON ANY THEORY OF LIABILITY, WHETHER IN CONTRACT, STRICT
 * LIABILITY, OR TORT (INCLUDING NEGLIGENCE OR OTHERWISE) ARISING IN
 * ANY WAY OUT OF THE USE OF THIS SOFTWARE, EVEN IF ADVISED OF THE
 * POSSIBILITY OF SUCH DAMAGE.
 * In addition Supplemental Terms apply.  See the SUPPLEMENTAL file. 
 ****************************************************************************/
-->

<robot name="dragon_ddk">
  <link name="base_link">
    <visual>
      <geometry>
        <mesh filename="meshes/dddk.stl" scale="0.2 0.2 0.2"/>
      </geometry>
      <origin rpy="1.57075 0 -1.57075" xyz="0 0 0"/>
      <material name="black">
        <color rgba=".3 .3 .9 1"/>
      </material>
    </visual>
    <collision>
      <geometry>
        <mesh filename="meshes/dddk.stl" scale="0.2 0.2 0.2"/>
      </geometry>
      <origin rpy="1.57075 0 -1.57075" xyz="0 0 0"/>
      <material name="black">
        <color rgba=".3 .3 .9 1"/>
      </material>
    </collision>
  </link>

  <joint name="base_to_imu" type="fixed">
    <parent link="base_link"/>
    <child link="imu"/>
    <origin xyz="0 0 0" rpy="0 0 0"/>
  </joint>

<!--  <joint name="base_to_imu" type="fixed">-->
<!--    <parent link="base_link"/>-->
<!--    <child link="imu"/>-->
<!--    <origin xyz="0.06631 0.01616 -0.0165" rpy="3.14159 0 0"/>-->
<!--  </joint>-->

  <link name="imu">
  </link>


<!--  <joint name="base_link_to_dfc" type="fixed">-->
<!--    <parent link="base_link"/>-->
<!--    <child link="dfc"/>-->
<!--    <origin xyz=".06631 0.0 -0.02388" rpy="3.14159 0.0 -1.571"/>-->
<!--  </joint>-->

<!--  <link name="dfc">-->
<!--  </link>-->


<!--  <joint name="base_to_hires" type="fixed">-->
<!--    <parent link="base_link"/>-->
<!--    <child link="hires"/>-->
<!--    <origin xyz="0.07783 0.0 -0.0.201" rpy="-1.571 0.0 -1.571"/>-->
<!--  </joint>-->

<!--  <link name="hires">-->
<!--  </link>-->
</robot>
