<?xml version="1.0" encoding="utf-8"?>
<!-- =================================================================================== -->
<!-- |    This document was autogenerated by xacro from crazyflie2.urdf.xacro          | -->
<!-- |    EDITING THIS FILE BY HAND IS NOT RECOMMENDED                                 | -->
<!-- =================================================================================== -->
<robot name="crazyflie2">
  <!-- [N.s^2] -->
  <link name="base_link">
    <inertial>
      <mass value="0.027"/>
      <origin xyz="0 0 0"/>
      <!-- Refer to page 39 in http://groups.csail.mit.edu/robotics-center/public_papers/Landry15.pdf -->
      <inertia ixx="2.3951e-5" ixy="0.0" ixz="0.0" iyy="2.3951e-5" iyz="0.0" izz="3.2347e-5"/>
      <!-- In Kg m^2 -->
    </inertial>
    <visual>
      <origin rpy="0 0 0" xyz="0 0 0"/>
      <geometry>
        <mesh filename="meshes/crazyflie2.dae"/>
      </geometry>
    </visual>
    <collision>
      <origin rpy="0 0 0" xyz="0 0 0"/>
      <geometry>
        <mesh filename="meshes/crazyflie2.dae"/>
      </geometry>
    </collision>
    <!-- ToDo: insert collision model -->
  </link>
  <joint name="base_to_nothing" type="fixed">
    <parent link="base_link"/>
    <child link="nothing"/>
    <origin xyz="0 0 0" rpy="0 0 0"/>
  </joint>
  <link name="nothing">
  </link>
</robot>

